{
  "validator" : {
    "$jsonSchema" : {
      "bsonType" : "object",
      "description" : "descrição da coleção.",
      "additionalProperties": false,
      "required" : [
        "int",
        "double",
        "date"
      ],
      "properties" : {
        "_id": {
          "bsonType": "objectId"
        },
        "int": {
          "bsonType": "int",
          "description": "deve ser inteiro."
        },
        "double": {
          "bsonType": "double",
          "description": "deve ser double."
        },
        "date": {
          "bsonType": "date",
          "description": "deve ser date."
        }
      }
    }
  }
}
